{
  "version": 1,
  "isRoot": true,
  "tools": {
    "cake.tool": {
      "version": "2.0.0",
      "commands": [
        "dotnet-cake"
      ]
    },
    "nuke.globaltool": {
      "version": "6.0.1",
      "commands": [
        "nuke"
      ]
    }
  }
}